{
  "swagger" : "2.0",
  "info" : {
    "description" : "ABK2 - CostCenters API",
    "version" : "3.0.0-SNAPSHOT",
    "title" : "ABK Api (ABK2 - CostCenters)"
  },
  "basePath" : "/",
  "tags" : [ {
    "name" : "Cost centers resource."
  } ],
  "schemes" : [ "http" ],
  "paths" : {
    "/costcenters" : {
      "get" : {
        "tags" : [ "Cost centers resource." ],
        "summary" : "Get list of all cost centers",
        "description" : "",
        "operationId" : "get",
        "produces" : [ "application/json" ],
        "parameters" : [ {
          "name" : "expand",
          "in" : "query",
          "description" : "Level (integer) to expand the result",
          "required" : false,
          "type" : "integer",
          "default" : 0,
          "format" : "int32"
        } ],
        "responses" : {
          "200" : {
            "description" : "successful operation",
            "schema" : {
              "$ref" : "#/definitions/CostCenters"
            }
          }
        }
      },
      "post" : {
        "tags" : [ "Cost centers resource." ],
        "summary" : "Add new cost center to the collection of cost centers",
        "description" : "",
        "operationId" : "addNewCostCenter",
        "consumes" : [ "application/json" ],
        "parameters" : [ {
          "in" : "body",
          "name" : "body",
          "required" : false,
          "schema" : {
            "$ref" : "#/definitions/CostCenter"
          }
        } ],
        "responses" : {
          "200" : {
            "description" : "successful operation",
            "schema" : {
              "$ref" : "#/definitions/CostCenter"
            }
          }
        }
      },
      "put" : {
        "tags" : [ "Cost centers resource." ],
        "summary" : "Replace the collection of cost centers",
        "description" : "",
        "operationId" : "replaceAllCostCenters",
        "consumes" : [ "application/json" ],
        "parameters" : [ {
          "in" : "body",
          "name" : "body",
          "required" : false,
          "schema" : {
            "type" : "array",
            "items" : {
              "$ref" : "#/definitions/CostCenter"
            }
          }
        } ],
        "responses" : {
          "default" : {
            "description" : "successful operation"
          }
        }
      }
    },
    "/costcenters/{id}" : {
      "get" : {
        "tags" : [ "Cost centers resource." ],
        "summary" : "Get a cost center by id",
        "description" : "",
        "operationId" : "get",
        "produces" : [ "application/json" ],
        "parameters" : [ {
          "name" : "id",
          "in" : "path",
          "description" : "id of the cost center",
          "required" : true,
          "type" : "integer",
          "format" : "int64"
        }, {
          "name" : "expand",
          "in" : "query",
          "description" : "Level (integer) to expand the result",
          "required" : false,
          "type" : "integer",
          "default" : 0,
          "format" : "int32"
        } ],
        "responses" : {
          "200" : {
            "description" : "successful operation",
            "schema" : {
              "$ref" : "#/definitions/CostCenter"
            }
          },
          "404" : {
            "description" : "cost center not found"
          }
        }
      },
      "put" : {
        "tags" : [ "Cost centers resource." ],
        "summary" : "replace cost center defined by id",
        "description" : "",
        "operationId" : "replaceACostCenter",
        "consumes" : [ "application/json" ],
        "parameters" : [ {
          "name" : "id",
          "in" : "path",
          "description" : "id of the cost center",
          "required" : true,
          "type" : "integer",
          "format" : "int64"
        }, {
          "in" : "body",
          "name" : "body",
          "required" : false,
          "schema" : {
            "$ref" : "#/definitions/CostCenter"
          }
        } ],
        "responses" : {
          "304" : {
            "description" : "In case the cost center was not found"
          }
        }
      },
      "delete" : {
        "tags" : [ "Cost centers resource." ],
        "summary" : "Delete cost center by id",
        "description" : "",
        "operationId" : "delete",
        "parameters" : [ {
          "name" : "id",
          "in" : "path",
          "description" : "id of the cost center",
          "required" : true,
          "type" : "integer",
          "format" : "int64"
        } ],
        "responses" : {
          "304" : {
            "description" : "In case the cost center was not found"
          }
        }
      }
    }
  },
  "definitions" : {
    "CostCenter" : {
      "type" : "object",
      "properties" : {
        "id" : {
          "type" : "integer",
          "format" : "int64"
        },
        "meta" : {
          "$ref" : "#/definitions/Meta"
        },
        "filter" : {
          "type" : "string"
        },
        "name" : {
          "type" : "string"
        },
        "parent" : {
          "$ref" : "#/definitions/CostCenter"
        },
        "list" : {
          "type" : "array",
          "items" : {
            "$ref" : "#/definitions/CostCenter"
          }
        }
      }
    },
    "CostCenters" : {
      "type" : "object",
      "properties" : {
        "list" : {
          "type" : "array",
          "items" : {
            "$ref" : "#/definitions/CostCenter"
          }
        }
      }
    },
    "Meta" : {
      "type" : "object",
      "properties" : {
        "href" : {
          "type" : "string"
        }
      }
    }
  }
}