    _    ____  _  __       ____          _    ____           _                
   / \  | __ )| |/ /  _   / ___|___  ___| |_ / ___|___ _ __ | |_ ___ _ __ ___ 
  / _ \ |  _ \| ' /  (_) | |   / _ \/ __| __| |   / _ \ '_ \| __/ _ \ '__/ __|
 / ___ \| |_) | . \   _  | |__| (_) \__ \ |_| |__|  __/ | | | ||  __/ |  \__ \
/_/   \_\____/|_|\_\ (_)  \____\___/|___/\__|\____\___|_| |_|\__\___|_|  |___/
                                                                              
