{
  "swagger" : "2.0",
  "info" : {
    "description" : "ABK2 - Admin API",
    "version" : "3.0.0-SNAPSHOT",
    "title" : "ABK Api (ABK2 - Admin)"
  },
  "basePath" : "/",
  "tags" : [ {
    "name" : "Admin resources"
  } ],
  "schemes" : [ "http" ],
  "paths" : {
    "/admin/csvreader" : {
      "get" : {
        "tags" : [ "Admin resources" ],
        "summary" : "Get current configured JavaScript CSV reader",
        "description" : "",
        "operationId" : "getCsvReader",
        "produces" : [ "application/json" ],
        "responses" : {
          "200" : {
            "description" : "successful operation",
            "schema" : {
              "$ref" : "#/definitions/CsvJsReader"
            }
          }
        }
      }
    }
  },
  "definitions" : {
    "CsvJsReader" : {
      "type" : "object",
      "properties" : {
        "headers" : {
          "type" : "string"
        },
        "dryrun" : {
          "type" : "string"
        },
        "script" : {
          "type" : "string"
        }
      },
      "xml" : {
        "name" : "CsvReader"
      }
    }
  }
}